<?xml version="1.0" standalone="no"?>
<!DOCTYPE svg PUBLIC "-//W3C//DTD SVG 20010904//EN"
 "http://www.w3.org/TR/2001/REC-SVG-20010904/DTD/svg10.dtd">
<svg version="1.0" xmlns="http://www.w3.org/2000/svg"
 width="700.000000pt" height="700.000000pt" viewBox="0 0 700.000000 700.000000"
 preserveAspectRatio="xMidYMid meet">
<metadata>
Created by potrace 1.11, written by Peter Selinger 2001-2013
</metadata>
<g transform="translate(0.000000,700.000000) scale(0.100000,-0.100000)"
fill="#000000" stroke="none">
<path d="M303 6985 c-152 -41 -261 -157 -293 -310 -7 -34 -9 -1062 -8 -3205
l3 -3155 23 -57 c42 -104 126 -188 230 -230 l57 -23 3185 0 3185 0 57 23 c104
42 188 126 230 230 l23 57 0 3185 0 3185 -23 57 c-12 31 -38 75 -56 98 -46 59
-108 105 -174 132 l-57 23 -3165 2 c-2704 1 -3173 0 -3217 -12z m1483 -2744
c138 -26 241 -96 285 -193 21 -46 24 -67 23 -168 0 -127 -11 -163 -66 -225
-36 -42 -87 -70 -160 -89 -29 -7 -54 -18 -55 -23 -2 -6 16 -14 41 -17 110 -17
216 -100 252 -197 26 -68 23 -228 -5 -301 -31 -79 -106 -160 -184 -197 -115
-54 -136 -56 -712 -56 l-530 0 -3 738 -2 737 534 0 c293 0 555 -4 582 -9z
m3184 -203 l0 -213 -210 -273 c-116 -150 -210 -275 -210 -277 0 -3 97 -5 215
-5 l215 0 0 -250 0 -250 -630 0 -630 0 0 230 0 231 205 259 c113 143 205 262
205 265 0 3 -90 5 -200 5 l-200 0 0 245 0 245 620 0 620 0 0 -212z m1342 -5
l-5 -218 -207 -270 -208 -270 219 -3 219 -2 -2 -248 -3 -247 -632 -3 -633 -2
0 227 1 228 210 265 209 265 -200 3 -200 2 0 245 0 245 618 0 619 0 -5 -217z
m-3424 -311 c2 -437 4 -503 17 -508 8 -4 22 -1 30 6 13 11 15 82 15 511 l0
499 340 0 340 0 0 -517 c0 -427 -3 -529 -15 -582 -70 -294 -375 -443 -828
-403 -72 6 -159 19 -192 28 -152 40 -271 131 -325 247 -57 121 -60 152 -60
715 l0 512 338 -2 337 -3 3 -503z"/>
<path d="M1350 3735 c0 -50 12 -62 55 -51 28 7 44 50 28 75 -6 9 -26 17 -47
19 l-36 3 0 -46z"/>
<path d="M1357 3363 c-4 -3 -7 -30 -7 -60 0 -60 13 -73 58 -57 60 21 46 124
-17 124 -15 0 -31 -3 -34 -7z"/>
</g>
</svg>
