{
	"name": "Buzz",
	"short_name": "Buzz",
	"icons": [
		{
			"src": "android-chrome-144x144.png",
			"sizes": "144x144",
			"type": "image/png"
		}
	],
	"theme_color": "#000",
	"background_color": "#000",
	"start_url": ".",
	"display": "standalone",
	"prefer_related_applications": true,
	"related_applications": [
		{
			"platform": "play",
			"url": "com.cappen.BUZZ"
		}
	]
}
